{
	"configurations" : 
	[
		{
			"directories" : 
			[
				{
					"build" : ".",
					"minimumCMakeVersion" : 
					{
						"string" : "3.5"
					},
					"projectIndex" : 0,
					"source" : ".",
					"targetIndexes" : 
					[
						0,
						1
					]
				}
			],
			"name" : "Debug",
			"projects" : 
			[
				{
					"directoryIndexes" : 
					[
						0
					],
					"name" : "First-Game",
					"targetIndexes" : 
					[
						0,
						1
					]
				}
			],
			"targets" : 
			[
				{
					"directoryIndex" : 0,
					"id" : "First-Game::@6890427a1f51a3e7e1df",
					"jsonFile" : "target-First-Game-Debug-b9bd103a1668afd1e5ee.json",
					"name" : "First-Game",
					"projectIndex" : 0
				},
				{
					"directoryIndex" : 0,
					"id" : "First-Game_autogen::@6890427a1f51a3e7e1df",
					"jsonFile" : "target-First-Game_autogen-Debug-e99059ad98402078b02d.json",
					"name" : "First-Game_autogen",
					"projectIndex" : 0
				}
			]
		}
	],
	"kind" : "codemodel",
	"paths" : 
	{
		"build" : "/home/mbonuchinedu/Documents/MainProjects/C++/build-First-Game-Desktop-Debug",
		"source" : "/home/mbonuchinedu/Documents/MainProjects/C++/First-Game"
	},
	"version" : 
	{
		"major" : 2,
		"minor" : 1
	}
}
